BUFFSIZE: 64
/home/noguchi/work/part1/A/A2
bufsize: 64, overhead is 30.5467321873
BUFFSIZE: 128
/home/noguchi/work/part1/A/A2
bufsize: 128, overhead is 17.0084583759
BUFFSIZE: 256
/home/noguchi/work/part1/A/A2
bufsize: 256, overhead is 18.7362661362
BUFFSIZE: 512
/home/noguchi/work/part1/A/A2
bufsize: 512, overhead is 17.7343475819
BUFFSIZE: 1024
/home/noguchi/work/part1/A/A2
bufsize: 1024, overhead is 10.3960874081
BUFFSIZE: 2048
/home/noguchi/work/part1/A/A2
bufsize: 2048, overhead is 12.4360301495
BUFFSIZE: 4096
/home/noguchi/work/part1/A/A2
bufsize: 4096, overhead is 14.0691721439
BUFFSIZE: 8192
/home/noguchi/work/part1/A/A2
bufsize: 8192, overhead is 15.1060986519
BUFFSIZE: 16384
/home/noguchi/work/part1/A/A2
bufsize: 16384, overhead is 13.7198383808
BUFFSIZE: 32768
/home/noguchi/work/part1/A/A2
bufsize: 32768, overhead is 14.0083351135
BUFFSIZE: 65536
/home/noguchi/work/part1/A/A2
bufsize: 65536, overhead is 15.1992213726
BUFFSIZE: 131072
/home/noguchi/work/part1/A/A2
bufsize: 131072, overhead is 13.9981887341
BUFFSIZE: 262144
/home/noguchi/work/part1/A/A2
bufsize: 262144, overhead is 14.6238703728
BUFFSIZE: 524288
/home/noguchi/work/part1/A/A2
bufsize: 524288, overhead is 14.5039668083
BUFFSIZE: 1048576
/home/noguchi/work/part1/A/A2
bufsize: 1048576, overhead is 14.4555101395
